working_temp/unit_test_single_port_blockram/report/waveform.vcd
$date
   Thu Aug 10 17:35:25 2017
$end
$version
  2016.4
$end
$timescale
  1ps
$end
$scope module single_port_blockram_testbench $end
$var integer 32 0 test_case_num $end
$var reg 64 1 test_input_1 [63:0] $end
$var reg 64 2 test_result_1 [63:0] $end
$var reg 64 3 test_result_2 [63:0] $end
$var reg 1 4 test_judge $end
$var reg 1 5 clk_in $end
$var reg 1 6 access_en_in $end
$var reg 1 7 write_en_in $end
$var reg 6 8 access_set_addr_in [5:0] $end
$var reg 64 9 write_element_in [63:0] $end
$var wire 64 ( read_element_out [63:0] $end
$var parameter 32 : SINGLE_ELEMENT_SIZE_IN_BITS [31:0] $end
$var parameter 32 ; NUMBER_SETS [31:0] $end
$var parameter 32 < SET_PTR_WIDTH_IN_BITS [31:0] $end
$scope module single_port_blockram $end
$var wire 1 ! access_en_in $end
$var wire 1 " access_en_in_IBUF $end
$var wire 6 # access_set_addr_in [5:0] $end
$var wire 6 $ access_set_addr_in_IBUF [5:0] $end
$var wire 1 % clk_in $end
$var wire 1 & clk_in_IBUF $end
$var wire 1 ' clk_in_IBUF_BUFG $end
$var wire 64 ( read_element_out [63:0] $end
$var wire 64 ) read_element_out_OBUF [63:0] $end
$var wire 64 * write_element_in [63:0] $end
$var wire 64 + write_element_in_IBUF [63:0] $end
$var wire 1 , write_en_in $end
$var wire 1 - write_en_in_IBUF $end
$var wire 6 . NLW_blockram_reg_1_DOBDO_UNCONNECTED [15:10] $end
$var wire 2 / NLW_blockram_reg_1_DOPBDOP_UNCONNECTED [1:0] $end
$upscope $end
$upscope $end
$enddefinitions $end
#0
$dumpvars
0!
x"
b0 #
bx $
0%
x&
x'
bx (
bx )
b0 *
bx +
0,
x-
bx .
bx /
b0 0
b0 1
b0 2
b0 3
04
05
06
07
b0 8
b0 9
b1000000 :
b1000000 ;
b110 <
$end
#100
b0 /
#120
x'
#679
b0 +
#700
0"
#708
b0 $
#720
0-
#751
0&
#2080
b0 )
b0 .
#2308
bx (
#2669
0'
#6080
bx0xxxxxxxxxxxxxxxxxxxxxxxxxxxxxxxxxxxxxxxxxxxxxxxxxxx (
#6087
bx0xxxxxxxxxxxxxxxxxxxxxxxxxxxxxx0xxxxxxxxxxxxxxxxxxxx (
#6098
bx0xxxxxxxxxxxxxxxxxxxxxxxxxxxxxx00xxxxxxxxxxxxxxxxxxx (
#6111
bx0xxxxxxxxxxxxxxxxxxxxxxxxxxxxxx00x0xxxxxxxxxxxxxxxxx (
#6114
bx0xxxxxxxxxxxxxxxxxxxxxxxxxxxx0x00x0xxxxxxxxxxxxxxxxx (
#6134
bx0x0xxxxxxxxxxxxxxxxxxxxxxxxxx0x00x0xxxxxxxxxxxxxxxxx (
#6148
bx000xxxxxxxxxxxxxxxxxxxxxxxxxx0x00x0xxxxxxxxxxxxxxxxx (
#6170
bx0000xxxxxxxxxxxxxxxxxxxxxxxxx0x00x0xxxxxxxxxxxxxxxxx (
#6187
bx0000xxxxxxxxxxxxxxxxxxxxxxxx00x0000xxxxxxxxxxxxxxxxx (
#6189
bx0000xxxxxxxxxxxxxxxxxxxxxxxx0000000xxxxxxxxxxxxxxxxx (
#6190
bx0000x0xxxxxxxxxxxxxxxxxxxxxx0000000xxxxxxxxxxxxxxxxx (
#6199
bx000000x0x0xxxxxxxxxxxxxxxxxx0x00000000xxxxxxxxxxxxxxxx (
#6201
bx000000x0x0xxxxxxxxxxxxxxx0xx0x00000000xxxxxxxxxxxxxxxx (
#6203
bx000000x0x00xxxxxxxxxxxxxx0xx0x00000000xxxxxxxxxxxxxxxx (
#6208
bx000000x0000xxxxxxxxxxxxxx0xx0x00000000xxxxxxxxxxxxxxxx (
#6230
bx000000x0000xxxxxxxxxxxxxx0x00x00000000xxxxxxxxxxxxxxxx (
#6233
bx0000000x0000xxxxxxxxxxxxxx0x00x00000000xxxxxxxxxxxxxxxx (
#6238
bx0000000x0000xxxxxxxxxxxxxx0000x00000000xxxxxxxxxxxxxxxx (
#6244
bx0000000x0000xxxxxxxxxxxx0x0000x00000000xxxxxxxxxxxxxxxx (
#6245
bx00000000x0000xxxxxxxxxxxx0x0000x00000000xxxxxxxxxxxxxxxx (
#6255
bx00000000x0000xxxxxxxxxxx00x0000x00000000xxxxxxxxxxxxxxxx (
#6258
bx0000000000000xxxxxxxxxxx00x0000x00000000xxxxxxxxxxxxxxxx (
#6265
bx0000000000000xxxxxxxxxxx00x0000000000000xxxxxxxxxxxxxxxx (
#6284
bx0xxxxx0000000000000xxxxxxxxxxx00x0000000000000xxxxxxxxxxxxxxxx (
#6289
bx0xxxxx0000000000000xxxx0xxxxxx00x0000000000000xxxxxxxxxxxxxxxx (
#6291
bx0xxxxx0000000000000xx0x0xxxxxx00x0000000000000xxxxxxxxxxxxxxxx (
#6321
bx0xxxxx0000000000000xx0x0xxxxxx0000000000000000xxxxxxxxxxxxxxxx (
#6328
bx0xxxxx0000000000000xx0x00xxxxx0000000000000000xxxxxxxxxxxxxxxx (
#6331
bx0xxxxx0000000000000x00x00xxxxx0000000000000000xxxxxxxxxxxxxxxx (
#6334
bx0xxxxx0000000000000x00x00xxxxx00000000000000000xxxxxxxxxxxxxxx (
#6343
bx0x0xxx0000000000000x00x00xxxxx00000000000000000xxxxxxxxxxxxxxx (
#6349
bx0x0xxx0000000000000000x00xxxxx00000000000000000xxxxxxxxxxxxxxx (
#6359
bx0x0xx00000000000000000x00xxxxx00000000000000000xxxxxxxxxxxxxxx (
#6361
bx0x0xx00000000000000000x00xxx0x00000000000000000xxxxxxxxxxxxxxx (
#6362
b0x0x0xx00000000000000000x00xxx0x00000000000000000xxxxxxxxxxxxxxx (
#6363
b0x0x0xx00000000000000000x00x0x0x00000000000000000xxxxxxxxxxxxxxx (
#6379
b0x0x0xx00000000000000000x00x0x0000000000000000000xxxxxxxxxxxxxxx (
#6383
b0x0x00x00000000000000000x00x0x0000000000000000000xxxxxxxxxxxxxxx (
#6409
b0x0000x00000000000000000x00x0x0000000000000000000xxxxxxxxxxxxxxx (
#6417
b0x0000x00000000000000000x00x000000000000000000000xxxxxxxxxxxxxxx (
#6421
b0x0000x00000000000000000x000000000000000000000000xxxxxxxxxxxxxxx (
#6431
b0x0000x000000000000000000000000000000000000000000xxxxxxxxxxxxxxx (
#6483
b0x000000000000000000000000000000000000000000xxxxxxxxxxxxxxx (
#6785
b0xxxxxxxxxxxxxxx (
#6991
b0x0xxxxxxxxxxxxx (
#7004
b0x00xxxxxxxxxxxx (
#7083
b0x00xx0xxxxxxxxx (
#7091
b0x000x0xxxxxxxxx (
#7104
b0x000x00xxxxxxxx (
#7114
b0x00xxxxxxxx (
#7208
b0xxxxxxxx (
#7221
b0xxxxxxx (
#7262
b0xxxxxx (
#7333
b0xxxxx (
#7352
b0xxxx0 (
#7364
b0xxx0 (
#7374
b0xx00 (
#7397
b0x00 (
#7425
b0 (
#10000
1!
b111111 #
1%
b1111111111111111111111111111111100000000000000000000000000000000 *
1,
b1 0
b1111111111111111111111111111111100000000000000000000000000000000 1
15
16
17
b111111 8
b1111111111111111111111111111111100000000000000000000000000000000 9
#10687
b1111111111111111111111111111111100000000000000000000000000000000 +
#10700
1"
#10708
b111111 $
#10720
1-
#10751
1&
#12669
1'
#20000
0%
05
#20751
0&
#22669
0'
#30000
1%
0,
15
07
#30720
0-
#30751
1&
#32669
1'
#40000
0%
05
#40751
0&
#42669
0'
#50000
1%
15
#50751
1&
#52669
1'
#60000
0%
b11111111111111111111111111111111 *
b10 0
b11111111111111111111111111111111 1
05
b111111 8
b11111111111111111111111111111111 9
#60679
b11111111111111111111111111111111 +
#60751
0&
#62669
0'
#70000
1%
15
#70751
1&
#72669
1'
#80000
0%
05
#80751
0&
#82669
0'
#90000
1%
15
#90751
1&
#92669
1'
#100000
0%
14
05
